The dpasurv package • dpasurv
…
3. Getting started with dpasurv

The dpasurv package implements the complete dynamic path analysis
workflow.

Simulated data set

The dpasurv package comes with a simulated data set called
simdata

simdata
#> # A tibble: 1,229 × 7
#>    subject     x dose      M start  stop event
#>    <fct>   <dbl> <fct> <dbl> <dbl> <dbl> <dbl>
#>  1 1           0 ctrl   6.74     0   4       0
#>  2 1           0 ctrl   6.91     4   8       0
#>  3 1           0 ctrl   6.9      8  12       0
#>  4 1           0 ctrl   6.71    12  26       0
#>  5 1           0 ctrl   6.45    26  46.8     1
#>  6 2           1 high   6.11     0   4       0
#>  7 2           1 high   6.28     4   8       0
#>  8 2           1 high   7.04     8  12       0
#>  9 2           1 high   6.93    12  26       0
#> 10 2           1 high   7.86    26  52       0
#> # ℹ 1,219 more rows
…
